<?xml version="1.0" encoding="utf-8"?>
<!-- Generator: Adobe Illustrator 24.0.0, SVG Export Plug-In . SVG Version: 6.00 Build 0)  -->
<svg version="1.1" id="Capa_1" xmlns="http://www.w3.org/2000/svg" xmlns:xlink="http://www.w3.org/1999/xlink" x="0px" y="0px"
	 viewBox="0 0 180 58" style="enable-background:new 0 0 180 58;" xml:space="preserve">
<style type="text/css">
	.st0{fill-rule:evenodd;clip-rule:evenodd;fill:#001780;}
	.st1{fill:#001780;}
	.st2{fill:#F09600;}
</style>
<g>
	<path class="st0" d="M61.17,27.36c-1.8,0-3.55-0.31-5.24-0.92c-1.7-0.61-2.55-1.7-2.55-3.27c0-1.57,0.67-2.35,1.99-2.35
		c0.2,0,0.98,0.27,2.35,0.82c1.36,0.55,2.55,0.82,3.54,0.82c1,0,1.5-0.45,1.5-1.35c0-0.59-0.34-1.08-1.03-1.48
		c-0.68-0.39-1.64-0.81-2.86-1.23c-1.22-0.43-1.99-0.75-2.3-0.98c-1.42-1.01-2.14-2.48-2.14-4.42c0-1.93,0.59-3.5,1.78-4.69
		c1.16-1.18,2.54-1.77,4.11-1.77c1.59,0,2.96,0.19,4.13,0.55c2.19,0.74,3.07,1.83,2.65,3.28c-0.43,1.44-1.21,2.12-2.34,2.02
		c-0.11,0-0.67-0.21-1.69-0.61c-1.02-0.41-1.92-0.62-2.71-0.62c-0.79,0-1.19,0.41-1.19,1.25c0,0.53,0.34,0.99,1.01,1.37
		c0.67,0.38,1.61,0.8,2.83,1.26c1.22,0.45,1.99,0.8,2.32,1.04c1.44,1.04,2.16,2.58,2.16,4.64c0,2.06-0.62,3.68-1.85,4.88
		C64.47,26.77,62.97,27.36,61.17,27.36z"/>
	<path class="st0" d="M88.6,16.98c0,3.13-0.95,5.66-2.85,7.59c-1.9,1.94-4.3,2.9-7.22,2.9c-2.91,0-5.31-0.97-7.19-2.9
		c-1.88-1.93-2.82-4.46-2.82-7.59c0-3.13,0.94-5.66,2.81-7.6c1.87-1.95,4.28-2.92,7.24-2.92c2.95,0,5.37,0.97,7.23,2.92
		C87.66,11.32,88.6,13.86,88.6,16.98z M81.94,13.22c-0.84-0.99-1.97-1.49-3.37-1.49c-1.41,0-2.53,0.5-3.38,1.49
		c-0.85,0.99-1.28,2.25-1.28,3.76c0,1.51,0.43,2.76,1.28,3.74c0.86,0.98,1.98,1.47,3.38,1.47c1.4,0,2.52-0.49,3.37-1.49
		c0.85-0.99,1.27-2.24,1.27-3.75C83.21,15.46,82.78,14.21,81.94,13.22z"/>
	<path class="st0" d="M107.17,23.66c0,0.73-0.54,1.54-1.61,2.45c-1.08,0.91-3.07,1.36-5.98,1.36c-2.92,0-5.31-0.97-7.19-2.9
		c-1.88-1.93-2.82-4.46-2.82-7.59c0-3.13,0.94-5.66,2.81-7.6c1.87-1.95,4.29-2.92,7.24-2.92c2.96,0,4.95,0.46,6,1.36
		c1.04,0.91,1.56,1.73,1.56,2.45c0,0.72-0.22,1.37-0.67,1.93c-0.45,0.56-0.94,0.85-1.48,0.85c-0.54,0-1.4-0.22-2.56-0.66
		c-1.17-0.44-2.04-0.66-2.62-0.66c-3.15,0-4.72,1.75-4.72,5.23c0,3.49,1.58,5.23,4.72,5.23c0.58,0,1.45-0.22,2.62-0.66
		c1.16-0.44,2.02-0.66,2.56-0.66c0.53,0,1.03,0.28,1.48,0.85C106.95,22.29,107.17,22.94,107.17,23.66z"/>
	<path class="st0" d="M135.61,27.3h-5.64c-1.85,0-2.78-0.87-2.78-2.61V9.67c0-1.74,0.93-2.61,2.78-2.61h5.64
		c3.1,0.38,5.23,2.21,6.4,5.49c0.58,1.53,0.87,3.07,0.87,4.64c0,1.56-0.29,3.1-0.87,4.62C140.85,25.09,138.71,26.92,135.61,27.3z
		 M137.74,17c-0.01-3.81-1.33-5.76-3.98-5.86h-1.01v11.99l1.01,0.03C136.42,22.86,137.74,20.81,137.74,17z"/>
	<path class="st0" d="M149.62,24.69c0,1.74-0.92,2.61-2.78,2.61c-1.85,0-2.79-0.87-2.79-2.61V9.67c0-1.74,0.93-2.61,2.79-2.61
		c1.85,0,2.78,0.87,2.78,2.61V24.69z"/>
	<path class="st0" d="M162.49,16.08V9.67c0-1.74,0.93-2.61,2.78-2.61c1.86,0,2.79,0.87,2.79,2.61v15.02c0,1.74-0.93,2.61-2.79,2.61
		c-1.03,0-1.85-0.38-2.44-1.14l-6.24-7.92v6.45c0,1.74-0.93,2.61-2.78,2.61c-1.86,0-2.78-0.87-2.78-2.61V9.67
		c0-1.73,0.93-2.6,2.78-2.61c1.19-0.01,2.04,0.4,2.56,1.23L162.49,16.08z"/>
	<path class="st0" d="M115.96,18.93l1.21-3.51l1.2,3.51H115.96z M120.03,23.73l0.54,1.53c0.47,1.36,1.27,2.04,2.38,2.04
		c1.11,0,1.89-0.36,2.35-1.07c0.46-0.71,0.68-1.35,0.68-1.92c0-0.57-0.12-1.13-0.36-1.69L119.8,9.1c-0.58-1.36-1.46-2.04-2.65-2.04
		c-1.19,0-2.07,0.68-2.65,2.04l-5.79,13.52c-0.24,0.55-0.35,1.11-0.35,1.68c0,0.57,0.23,1.21,0.71,1.92
		c0.47,0.72,1.25,1.08,2.35,1.08c1.09,0,1.88-0.68,2.35-2.04l0.54-1.53H120.03z"/>
	<path class="st0" d="M53.3,40.88c0-0.72,1.02-1.31,2.27-1.31h110.06c1.25,0,2.27,0.58,2.27,1.31v1.18c0,0.72-1.02,1.31-2.27,1.31
		H55.57c-1.25,0-2.27-0.59-2.27-1.31V40.88z"/>
	<path class="st1" d="M180,8.48c0,2.42-1.9,4.33-4.38,4.33c-2.45,0-4.4-1.9-4.4-4.33c0-2.37,1.96-4.27,4.4-4.27
		C178.1,4.21,180,6.11,180,8.48z M172.31,8.48c0,1.9,1.41,3.41,3.33,3.41c1.88,0,3.26-1.51,3.26-3.39c0-1.9-1.38-3.44-3.29-3.44
		C173.72,5.07,172.31,6.6,172.31,8.48z M174.94,10.72h-0.99V6.45c0.39-0.08,0.94-0.13,1.64-0.13c0.81,0,1.17,0.13,1.49,0.31
		c0.24,0.18,0.42,0.52,0.42,0.94c0,0.47-0.37,0.83-0.89,0.99v0.05c0.42,0.16,0.65,0.47,0.78,1.04c0.13,0.65,0.21,0.91,0.31,1.07
		h-1.07c-0.13-0.16-0.21-0.55-0.34-1.04C176.22,9.21,175.96,9,175.41,9h-0.47V10.72z M174.97,8.3h0.47c0.55,0,0.99-0.18,0.99-0.62
		c0-0.39-0.29-0.65-0.91-0.65c-0.26,0-0.44,0.03-0.55,0.05V8.3z"/>
	<g>
		<path class="st1" d="M54.96,30.55v3.22c0,0.96,0.37,1.45,1.01,1.45c0.66,0,1.03-0.46,1.03-1.45v-3.22h1.26v3.14
			c0,1.73-0.87,2.55-2.33,2.55c-1.41,0-2.24-0.78-2.24-2.57v-3.12H54.96z"/>
		<path class="st1" d="M59.32,33.39c0-0.51-0.02-0.94-0.03-1.3h1.1l0.06,0.56h0.02c0.17-0.26,0.58-0.65,1.25-0.65
			c0.83,0,1.45,0.55,1.45,1.74v2.41h-1.26V33.9c0-0.52-0.18-0.88-0.64-0.88c-0.35,0-0.56,0.24-0.64,0.47
			c-0.03,0.07-0.05,0.2-0.05,0.32v2.34h-1.26V33.39z"/>
		<path class="st1" d="M66.49,36.15l-0.07-0.41h-0.02c-0.27,0.32-0.68,0.5-1.16,0.5c-0.82,0-1.31-0.6-1.31-1.25
			c0-1.06,0.95-1.56,2.38-1.55v-0.06c0-0.22-0.12-0.52-0.74-0.52c-0.42,0-0.86,0.14-1.12,0.31l-0.23-0.81
			C64.49,32.2,65.05,32,65.79,32c1.35,0,1.79,0.8,1.79,1.75v1.41c0,0.39,0.02,0.76,0.06,0.99H66.49z M66.34,34.23
			c-0.66-0.01-1.18,0.15-1.18,0.64c0,0.32,0.22,0.48,0.5,0.48c0.32,0,0.57-0.21,0.66-0.47c0.02-0.07,0.02-0.14,0.02-0.22V34.23z"/>
		<path class="st1" d="M71.22,34.52c0.04,0.52,0.56,0.77,1.15,0.77c0.43,0,0.78-0.06,1.12-0.17l0.17,0.86
			c-0.42,0.17-0.92,0.25-1.47,0.25c-1.38,0-2.17-0.8-2.17-2.07c0-1.03,0.64-2.17,2.05-2.17c1.31,0,1.81,1.02,1.81,2.03
			c0,0.22-0.03,0.41-0.04,0.5H71.22z M72.71,33.66c0-0.31-0.13-0.82-0.71-0.82c-0.53,0-0.75,0.48-0.78,0.82H72.71z"/>
		<path class="st1" d="M74.63,33.39c0-0.51-0.02-0.94-0.03-1.3h1.06l0.06,0.55h0.02c0.17-0.26,0.53-0.64,1.23-0.64
			c0.52,0,0.94,0.27,1.11,0.69h0.02c0.15-0.21,0.33-0.37,0.52-0.49c0.22-0.13,0.47-0.2,0.77-0.2c0.78,0,1.37,0.55,1.37,1.76v2.39
			h-1.23v-2.21c0-0.59-0.19-0.93-0.6-0.93c-0.29,0-0.5,0.2-0.58,0.44c-0.03,0.09-0.05,0.22-0.05,0.32v2.38h-1.23v-2.28
			c0-0.51-0.18-0.86-0.58-0.86c-0.32,0-0.51,0.25-0.59,0.46c-0.04,0.1-0.05,0.22-0.05,0.32v2.37h-1.23V33.39z"/>
		<path class="st1" d="M81.78,33.45c0-0.53-0.02-0.99-0.03-1.36h1.1l0.06,0.56h0.02c0.3-0.43,0.76-0.66,1.35-0.66
			c0.89,0,1.69,0.77,1.69,2.07c0,1.48-0.94,2.18-1.84,2.18c-0.49,0-0.87-0.2-1.05-0.47h-0.02v2.02h-1.26V33.45z M83.04,34.41
			c0,0.1,0.01,0.19,0.02,0.27c0.08,0.34,0.37,0.6,0.74,0.6c0.55,0,0.87-0.46,0.87-1.15c0-0.65-0.29-1.14-0.86-1.14
			c-0.36,0-0.67,0.27-0.76,0.64c-0.02,0.07-0.02,0.15-0.02,0.22V34.41z"/>
		<path class="st1" d="M86.74,33.43c0-0.6-0.02-0.99-0.03-1.34h1.09l0.04,0.75h0.03c0.21-0.59,0.71-0.84,1.1-0.84
			c0.12,0,0.17,0,0.27,0.02v1.19c-0.09-0.02-0.2-0.03-0.34-0.03c-0.47,0-0.78,0.25-0.86,0.64C88.01,33.89,88,33.99,88,34.09v2.06
			h-1.26V33.43z"/>
		<path class="st1" d="M90.8,34.52c0.04,0.52,0.56,0.77,1.15,0.77c0.43,0,0.78-0.06,1.12-0.17l0.17,0.86
			c-0.42,0.17-0.92,0.25-1.47,0.25c-1.38,0-2.17-0.8-2.17-2.07c0-1.03,0.64-2.17,2.05-2.17c1.31,0,1.81,1.02,1.81,2.03
			c0,0.22-0.02,0.41-0.04,0.5H90.8z M92.29,33.66c0-0.31-0.13-0.82-0.71-0.82c-0.53,0-0.75,0.48-0.78,0.82H92.29z"/>
		<path class="st1" d="M94.21,35.05c0.23,0.14,0.71,0.31,1.09,0.31c0.38,0,0.54-0.13,0.54-0.34c0-0.21-0.12-0.31-0.6-0.46
			c-0.84-0.28-1.16-0.74-1.15-1.22c0-0.76,0.65-1.33,1.65-1.33c0.47,0,0.9,0.11,1.15,0.23l-0.22,0.87c-0.18-0.1-0.53-0.23-0.88-0.23
			c-0.31,0-0.48,0.12-0.48,0.33c0,0.19,0.16,0.29,0.66,0.47c0.77,0.27,1.1,0.66,1.1,1.25c0,0.76-0.6,1.31-1.76,1.31
			c-0.53,0-1.01-0.12-1.31-0.28L94.21,35.05z"/>
		<path class="st1" d="M100.13,36.15l-0.07-0.41h-0.02c-0.27,0.32-0.68,0.5-1.16,0.5c-0.82,0-1.31-0.6-1.31-1.25
			c0-1.06,0.95-1.56,2.38-1.55v-0.06c0-0.22-0.12-0.52-0.74-0.52c-0.41,0-0.86,0.14-1.12,0.31l-0.23-0.81
			C98.13,32.2,98.68,32,99.42,32c1.35,0,1.79,0.8,1.79,1.75v1.41c0,0.39,0.02,0.76,0.06,0.99H100.13z M99.98,34.23
			c-0.66-0.01-1.18,0.15-1.18,0.64c0,0.32,0.22,0.48,0.5,0.48c0.32,0,0.57-0.21,0.66-0.47c0.02-0.07,0.02-0.14,0.02-0.22V34.23z"/>
		<path class="st1" d="M107.82,30.25v4.68c0,0.46,0.02,0.94,0.03,1.21h-1.12l-0.06-0.6h-0.02c-0.26,0.46-0.75,0.69-1.27,0.69
			c-0.96,0-1.74-0.82-1.74-2.08c-0.01-1.37,0.85-2.16,1.82-2.16c0.5,0,0.89,0.17,1.07,0.46h0.02v-2.2H107.82z M106.56,33.81
			c0-0.07-0.01-0.16-0.02-0.22c-0.07-0.34-0.35-0.62-0.74-0.62c-0.57,0-0.87,0.52-0.87,1.15c0,0.69,0.34,1.12,0.86,1.12
			c0.37,0,0.66-0.25,0.73-0.61c0.02-0.09,0.03-0.18,0.03-0.29V33.81z"/>
		<path class="st1" d="M109.81,34.52c0.04,0.52,0.56,0.77,1.15,0.77c0.43,0,0.78-0.06,1.12-0.17l0.17,0.86
			c-0.42,0.17-0.92,0.25-1.47,0.25c-1.38,0-2.17-0.8-2.17-2.07c0-1.03,0.64-2.17,2.05-2.17c1.31,0,1.81,1.02,1.81,2.03
			c0,0.22-0.03,0.41-0.04,0.5H109.81z M111.29,33.66c0-0.31-0.13-0.82-0.71-0.82c-0.53,0-0.75,0.48-0.78,0.82H111.29z"/>
		<path class="st1" d="M113.22,30.25h1.26v5.9h-1.26V30.25z"/>
		<path class="st1" d="M121.9,35.89c-0.39,0.13-1.13,0.32-1.87,0.32c-1.02,0-1.76-0.26-2.28-0.76c-0.51-0.48-0.8-1.21-0.79-2.03
			c0.01-1.86,1.36-2.92,3.2-2.92c0.72,0,1.28,0.14,1.55,0.27l-0.27,1.01c-0.31-0.13-0.69-0.24-1.3-0.24c-1.05,0-1.85,0.6-1.85,1.81
			c0,1.15,0.72,1.84,1.76,1.84c0.29,0,0.52-0.03,0.62-0.08v-1.17h-0.86v-0.99h2.08V35.89z"/>
		<path class="st1" d="M122.89,30.63c0.41-0.07,1.01-0.12,1.69-0.12c0.83,0,1.41,0.12,1.81,0.44c0.33,0.27,0.51,0.66,0.51,1.17
			c0,0.71-0.51,1.2-0.99,1.38v0.02c0.39,0.16,0.61,0.53,0.75,1.05c0.17,0.63,0.35,1.36,0.46,1.58h-1.3
			c-0.09-0.16-0.22-0.61-0.39-1.3c-0.15-0.7-0.39-0.89-0.91-0.9h-0.38v2.2h-1.25V30.63z M124.14,33.04h0.5
			c0.63,0,1.01-0.32,1.01-0.81c0-0.52-0.35-0.77-0.93-0.78c-0.31,0-0.48,0.02-0.57,0.04V33.04z"/>
		<path class="st1" d="M129.03,30.55v3.22c0,0.96,0.37,1.45,1.01,1.45c0.66,0,1.03-0.46,1.03-1.45v-3.22h1.26v3.14
			c0,1.73-0.87,2.55-2.33,2.55c-1.41,0-2.24-0.78-2.24-2.57v-3.12H129.03z"/>
		<path class="st1" d="M133.43,30.63c0.39-0.07,0.94-0.12,1.71-0.12c0.78,0,1.34,0.15,1.71,0.45c0.36,0.28,0.6,0.75,0.6,1.3
			c0,0.55-0.18,1.01-0.51,1.33c-0.43,0.41-1.07,0.59-1.82,0.59c-0.17,0-0.32-0.01-0.43-0.03v2h-1.25V30.63z M134.69,33.17
			c0.11,0.02,0.24,0.03,0.42,0.03c0.67,0,1.09-0.34,1.09-0.91c0-0.51-0.36-0.82-0.99-0.82c-0.26,0-0.43,0.02-0.52,0.05V33.17z"/>
		<path class="st1" d="M143.38,33.29c0,1.84-1.11,2.95-2.75,2.95c-1.66,0-2.63-1.25-2.63-2.85c0-1.68,1.07-2.93,2.72-2.93
			C142.44,30.46,143.38,31.75,143.38,33.29z M139.34,33.37c0,1.1,0.51,1.87,1.36,1.87c0.86,0,1.35-0.81,1.35-1.9
			c0-1-0.48-1.87-1.35-1.87C139.84,31.47,139.34,32.28,139.34,33.37z"/>
		<path class="st1" d="M147.19,34.71l-0.4,1.44h-1.31l1.71-5.6h1.66l1.74,5.6h-1.36l-0.43-1.44H147.19z M148.61,33.77l-0.35-1.19
			c-0.1-0.33-0.2-0.75-0.28-1.08h-0.02c-0.08,0.33-0.17,0.76-0.26,1.08l-0.33,1.19H148.61z"/>
		<path class="st1" d="M151.73,31.62h-1.5v-1.06h4.3v1.06H153v4.53h-1.27V31.62z"/>
		<path class="st1" d="M155.2,30.55h1.27v4.53h2.23v1.06h-3.5V30.55z"/>
		<path class="st1" d="M160.8,34.71l-0.4,1.44h-1.31l1.71-5.6h1.66l1.74,5.6h-1.36l-0.43-1.44H160.8z M162.22,33.77l-0.35-1.19
			c-0.1-0.33-0.2-0.75-0.28-1.08h-0.02c-0.08,0.33-0.17,0.76-0.26,1.08l-0.33,1.19H162.22z"/>
		<path class="st1" d="M164.98,34.85c0.34,0.17,0.86,0.35,1.4,0.35c0.58,0,0.89-0.24,0.89-0.61c0-0.35-0.27-0.55-0.94-0.79
			c-0.93-0.32-1.54-0.84-1.54-1.65c0-0.96,0.8-1.69,2.12-1.69c0.63,0,1.1,0.13,1.43,0.28l-0.28,1.02c-0.22-0.11-0.62-0.27-1.17-0.27
			c-0.55,0-0.81,0.25-0.81,0.54c0,0.36,0.32,0.51,1.04,0.79c0.99,0.37,1.45,0.88,1.45,1.67c0,0.94-0.72,1.74-2.26,1.74
			c-0.64,0-1.27-0.17-1.59-0.34L164.98,34.85z"/>
	</g>
	<g>
		<path class="st1" d="M107.34,46.24l0.27,0.04c-0.05,0.29-0.07,0.5-0.07,0.61c0,0.15,0.09,0.25,0.27,0.3
			c0.18,0.05,0.52,0.08,1.04,0.08c0.35,0,0.83-0.02,1.43-0.07l1.89-0.16c0.66-0.05,1.26-0.08,1.81-0.08c1.55,0,2.73,0.31,3.55,0.93
			c0.82,0.62,1.23,1.52,1.23,2.68c0,0.86-0.2,1.74-0.6,2.64c-0.4,0.9-0.95,1.68-1.63,2.34c-1.11,1.08-2.33,1.62-3.65,1.62
			c-0.86,0-1.57-0.2-2.13-0.59c-0.56-0.39-1.18-1.12-1.85-2.18l-0.55-0.87l-0.07-0.11l-0.15,0.05c-1.4,0.46-2.44,0.68-3.12,0.68
			c-0.72,0-1.31-0.2-1.75-0.59c-0.44-0.4-0.66-0.92-0.66-1.56c0-0.92,0.41-1.64,1.22-2.16c0.55-0.36,1.12-0.54,1.7-0.54
			c0.59,0,1.1,0.22,1.53,0.65c0.43,0.43,1.05,1.36,1.87,2.78l0.09,0.15l0.27-0.1c1.83-0.69,3.61-1.43,5.34-2.22l1.69-0.78l0.23-0.1
			c0.02,0.07,0.03,0.13,0.03,0.19c0,0.33-0.18,0.99-0.54,2c-0.33,0.92-0.5,1.47-0.5,1.64c0,0.15,0.09,0.22,0.28,0.22
			c0.1,0,0.23-0.03,0.4-0.08l0.08,0.27l-0.17,0.06c-0.41,0.15-0.89,0.31-1.45,0.49l-0.19,0.07c0.01-0.13,0.03-0.27,0.07-0.41
			l0.06-0.25c0.07-0.29,0.25-0.84,0.53-1.66c0.26-0.76,0.39-1.2,0.39-1.32c0-0.19-0.07-0.28-0.22-0.28c-0.09,0-0.25,0.05-0.47,0.15
			l-0.54,0.24l-1.67,0.73c-1.19,0.52-2.29,0.96-3.31,1.33l-0.17,0.06c0.71,1.25,1.39,2.15,2.04,2.69c0.65,0.54,1.37,0.81,2.16,0.81
			c0.71,0,1.39-0.19,2.05-0.57c0.66-0.38,1.2-0.9,1.62-1.55c0.72-1.12,1.08-2.27,1.08-3.43c0-1.02-0.36-1.81-1.08-2.36
			c-0.72-0.55-1.74-0.83-3.08-0.83c-0.48,0-1.05,0.03-1.71,0.09l-2.55,0.25c-0.44,0.04-0.89,0.06-1.35,0.06
			c-0.57,0-1.04-0.07-1.44-0.21l0.04-0.14c0.07-0.27,0.14-0.52,0.19-0.75l0.17-0.8L107.34,46.24z M108.12,53.16l-0.17-0.28
			c-0.73-1.2-1.3-2-1.72-2.39c-0.42-0.39-0.92-0.59-1.49-0.59c-0.48,0-0.9,0.18-1.25,0.53c-0.35,0.35-0.53,0.77-0.53,1.25
			c0,0.59,0.22,1.09,0.67,1.47c0.45,0.38,1.02,0.58,1.71,0.58C106.14,53.73,107.06,53.54,108.12,53.16z"/>
		<path class="st1" d="M122.19,53.91c0.07,0.14,0.1,0.26,0.1,0.37c0,0.48-0.33,1.02-0.99,1.64c-0.96,0.91-1.78,1.36-2.45,1.36
			c-0.58,0-0.87-0.33-0.87-0.99c0-0.74,0.23-1.52,0.68-2.34c0.45-0.82,1.03-1.49,1.74-2.02c0.86-0.64,1.63-0.97,2.3-0.97
			c0.39,0,0.59,0.14,0.59,0.43c0,0.19-0.09,0.41-0.28,0.68c-0.19,0.27-0.42,0.5-0.71,0.72c-0.26,0.19-0.6,0.37-1,0.54
			c-0.4,0.16-0.71,0.25-0.93,0.25c-0.23,0-0.39-0.13-0.48-0.39c0.21,0.03,0.38,0.05,0.5,0.05c0.5,0,0.95-0.14,1.37-0.43
			c0.42-0.28,0.63-0.59,0.63-0.92c0-0.24-0.15-0.36-0.46-0.36c-0.55,0-1.11,0.34-1.69,1.01c-0.41,0.48-0.74,1.03-1,1.66
			c-0.26,0.64-0.39,1.2-0.39,1.7c0,0.51,0.21,0.76,0.64,0.76c0.47,0,0.95-0.25,1.45-0.77C121.44,55.38,121.86,54.72,122.19,53.91z"
			/>
		<path class="st1" d="M126.92,51.04l-0.08,0.14l-0.36,0.61c-0.13,0.22-0.27,0.44-0.41,0.65l-0.08,0.12l-0.19-0.13
			c0.02-0.05,0.04-0.09,0.05-0.12c0.1-0.21,0.16-0.36,0.16-0.45c0-0.19-0.17-0.28-0.5-0.28c-0.3,0-0.57,0.11-0.79,0.34
			c-0.23,0.23-0.34,0.49-0.34,0.79c0,0.16,0.05,0.35,0.15,0.56l0.36,0.76c0.12,0.26,0.18,0.54,0.18,0.85c0,0.6-0.33,1.17-0.99,1.7
			c-0.57,0.46-1.07,0.69-1.52,0.69c-0.25,0-0.46-0.06-0.62-0.19c-0.16-0.13-0.25-0.29-0.25-0.49c0-0.23,0.06-0.46,0.18-0.68
			c0.31,0.53,0.69,0.79,1.14,0.79c0.36,0,0.68-0.12,0.96-0.37c0.28-0.25,0.42-0.53,0.42-0.86c0-0.17-0.05-0.37-0.15-0.59l-0.44-0.96
			c-0.09-0.19-0.13-0.4-0.13-0.63c0-0.41,0.23-0.87,0.68-1.38c0.31-0.34,0.61-0.57,0.92-0.71c0.31-0.14,0.69-0.2,1.15-0.2
			C126.59,51,126.76,51.01,126.92,51.04z"/>
		<path class="st1" d="M133.62,47.01c-0.02,0.33-0.25,1.05-0.7,2.18l-0.55,1.38l-0.22,0.53c0.3,0.12,0.46,0.36,0.48,0.73
			c-0.21-0.07-0.44-0.11-0.71-0.13l-0.05,0.13l-0.96,2.44c-0.45,1.14-0.67,1.78-0.67,1.94c0,0.14,0.07,0.21,0.2,0.21
			c0.14,0,0.37-0.1,0.68-0.29c0.02-0.01,0.04-0.03,0.07-0.05l0.14,0.18c-0.54,0.37-1.28,0.69-2.24,0.97l0.06-0.25
			c0.16-0.59,0.42-1.34,0.78-2.23c0.11-0.27,0.22-0.53,0.31-0.77l0.83-2.17l0.08-0.16c-0.53,0-1.11,0.14-1.73,0.43
			c-0.62,0.29-1.16,0.66-1.63,1.11c-0.87,0.87-1.31,1.76-1.31,2.67c0,0.42,0.15,0.63,0.46,0.63c0.3,0,0.68-0.21,1.13-0.63
			c0.45-0.42,0.85-0.92,1.2-1.52c0.33-0.56,0.59-1.2,0.8-1.9c0.08,0.18,0.13,0.38,0.13,0.59c0,0.41-0.18,0.89-0.53,1.44
			c-0.36,0.54-0.83,1.07-1.42,1.58c-0.89,0.75-1.58,1.13-2.07,1.13c-0.38,0-0.57-0.24-0.57-0.71c0-0.41,0.13-0.88,0.4-1.42
			c0.27-0.53,0.62-1.05,1.06-1.53c1.23-1.35,2.67-2.17,4.3-2.45l0.2-0.51l0.54-1.4c0.16-0.41,0.24-0.68,0.25-0.83
			c0.01-0.21-0.1-0.32-0.32-0.32c-0.13,0-0.27,0.03-0.43,0.1l-0.09-0.22l0.12-0.05C132.45,47.56,133.11,47.28,133.62,47.01z"/>
		<path class="st1" d="M135.97,53.91c0.07,0.14,0.1,0.26,0.1,0.37c0,0.48-0.33,1.02-0.99,1.64c-0.96,0.91-1.78,1.36-2.45,1.36
			c-0.58,0-0.87-0.33-0.87-0.99c0-0.74,0.23-1.52,0.68-2.34c0.45-0.82,1.03-1.49,1.74-2.02c0.86-0.64,1.63-0.97,2.3-0.97
			c0.39,0,0.59,0.14,0.59,0.43c0,0.19-0.09,0.41-0.28,0.68c-0.19,0.27-0.42,0.5-0.71,0.72c-0.26,0.19-0.6,0.37-1,0.54
			c-0.4,0.16-0.71,0.25-0.93,0.25c-0.23,0-0.39-0.13-0.48-0.39c0.21,0.03,0.37,0.05,0.5,0.05c0.5,0,0.95-0.14,1.37-0.43
			c0.42-0.28,0.63-0.59,0.63-0.92c0-0.24-0.15-0.36-0.46-0.36c-0.55,0-1.11,0.34-1.69,1.01c-0.41,0.48-0.74,1.03-1,1.66
			c-0.26,0.64-0.39,1.2-0.39,1.7c0,0.51,0.21,0.76,0.64,0.76c0.46,0,0.95-0.25,1.45-0.77C135.22,55.38,135.64,54.72,135.97,53.91z"
			/>
		<path class="st1" d="M143.74,48.43l-0.04-0.23c0.11-0.03,0.17-0.04,0.19-0.05l0.86-0.2l0.65-0.15c0.41-0.1,0.77-0.24,1.09-0.4
			c-0.16,0.39-0.41,1.03-0.73,1.92c-1.19,3.3-2.17,5.73-2.97,7.28l-0.1,0.18l-0.11,0.06c-0.47,0.23-0.85,0.37-1.15,0.41
			c0.35-0.54,0.77-1.33,1.25-2.39c0.48-1.06,0.91-2.12,1.3-3.2l0.77-2.16c0.2-0.56,0.31-0.9,0.31-1.03
			c0.01-0.16-0.07-0.25-0.23-0.25c-0.09,0-0.27,0.03-0.55,0.09C144.04,48.38,143.86,48.41,143.74,48.43z"/>
		<path class="st1" d="M152.26,49.6c0.19,0.14,0.29,0.34,0.29,0.62c0,0.42-0.24,0.9-0.72,1.44c-0.53,0.6-1.08,0.9-1.68,0.9
			c-0.44,0-0.79-0.14-1.05-0.43c-0.26-0.29-0.39-0.67-0.39-1.16c0-0.96,0.4-1.81,1.21-2.56c0.72-0.66,1.47-1,2.23-1
			c0.52,0,0.92,0.19,1.21,0.56c0.29,0.38,0.43,0.9,0.43,1.57c0,1.97-1.08,3.89-3.23,5.78c-0.7,0.62-1.39,1.11-2.07,1.47
			c-0.68,0.36-1.24,0.54-1.68,0.54c-0.2,0-0.34-0.06-0.41-0.18c1.59-0.33,2.95-1.04,4.09-2.13c0.73-0.7,1.33-1.54,1.79-2.53
			c0.46-0.99,0.69-1.91,0.69-2.77c0-0.52-0.14-0.94-0.42-1.26c-0.28-0.32-0.65-0.49-1.1-0.49c-0.55,0-1.02,0.24-1.41,0.73
			c-0.39,0.49-0.59,1.07-0.59,1.75c0,0.46,0.11,0.82,0.34,1.1c0.23,0.28,0.52,0.42,0.89,0.42c0.46,0,0.83-0.22,1.12-0.65
			C152.07,50.9,152.23,50.32,152.26,49.6z"/>
		<path class="st1" d="M161.29,47.39l-0.04,0.11c-0.32,1.02-0.75,1.92-1.29,2.71c-0.37,0.54-0.76,1.01-1.16,1.42
			c-0.4,0.4-1.1,1.01-2.08,1.82c-1.7,1.41-2.55,2.4-2.55,2.99c0,0.32,0.26,0.5,0.78,0.54c-0.11,0.24-0.27,0.36-0.49,0.36
			c-0.17,0-0.31-0.06-0.41-0.19c-0.11-0.13-0.16-0.29-0.16-0.5c0-0.58,0.24-1.23,0.72-1.94c0.48-0.72,1.12-1.38,1.92-1.99l1.57-1.2
			c1.37-1.04,2.23-2.13,2.56-3.25h-2.92h-0.44c-0.43,0-0.71,0.06-0.86,0.19c-0.15,0.13-0.31,0.45-0.47,0.96h-0.25
			c0.29-0.81,0.5-1.49,0.63-2.03H161.29z"/>
		<path class="st1" d="M167.79,47.39l-0.04,0.11c-0.32,1.02-0.75,1.92-1.29,2.71c-0.37,0.54-0.76,1.01-1.16,1.42
			c-0.4,0.4-1.1,1.01-2.08,1.82c-1.7,1.41-2.55,2.4-2.55,2.99c0,0.32,0.26,0.5,0.78,0.54c-0.11,0.24-0.27,0.36-0.49,0.36
			c-0.17,0-0.31-0.06-0.41-0.19c-0.11-0.13-0.16-0.29-0.16-0.5c0-0.58,0.24-1.23,0.72-1.94c0.48-0.72,1.12-1.38,1.92-1.99l1.57-1.2
			c1.37-1.04,2.23-2.13,2.56-3.25h-2.92h-0.44c-0.43,0-0.71,0.06-0.87,0.19c-0.15,0.13-0.31,0.45-0.47,0.96h-0.25
			c0.29-0.81,0.5-1.49,0.63-2.03H167.79z"/>
	</g>
	<g>
		<g>
			<g>
				<g>
					<g>
						<path class="st2" d="M16.96,5.42c-0.74-0.34-1.25-0.98-1.47-1.7c0.69-0.3,1.51-0.31,2.25,0.03c0.74,0.34,1.25,0.98,1.47,1.7
							C18.51,5.75,17.7,5.77,16.96,5.42z"/>
						<path class="st2" d="M17.19,2.25c-0.35,0.74-0.98,1.25-1.7,1.47c-0.3-0.69-0.31-1.51,0.03-2.25c0.34-0.74,0.98-1.25,1.7-1.47
							C17.52,0.69,17.53,1.51,17.19,2.25z"/>
					</g>
					<g>
						<path class="st2" d="M14.03,6.91c-0.79-0.21-1.4-0.74-1.74-1.42c0.63-0.41,1.43-0.57,2.22-0.36c0.79,0.21,1.4,0.74,1.74,1.42
							C15.62,6.97,14.82,7.12,14.03,6.91z"/>
						<path class="st2" d="M13.7,3.74c-0.21,0.79-0.74,1.4-1.42,1.74c-0.41-0.63-0.57-1.43-0.36-2.22c0.21-0.79,0.74-1.4,1.42-1.74
							C13.76,2.16,13.92,2.95,13.7,3.74z"/>
					</g>
					<g>
						<path class="st2" d="M11.41,8.88C10.6,8.81,9.9,8.4,9.45,7.79c0.55-0.52,1.31-0.81,2.12-0.74c0.81,0.07,1.51,0.49,1.96,1.09
							C12.98,8.67,12.22,8.96,11.41,8.88z"/>
						<path class="st2" d="M10.53,5.82c-0.07,0.81-0.49,1.51-1.09,1.96C8.92,7.23,8.63,6.47,8.7,5.66C8.77,4.85,9.19,4.15,9.8,3.7
							C10.31,4.25,10.61,5.01,10.53,5.82z"/>
					</g>
					<g>
						<path class="st2" d="M9.16,11.29c-0.81,0.07-1.57-0.22-2.12-0.74C7.49,9.95,8.19,9.53,9,9.46c0.81-0.07,1.57,0.22,2.12,0.74
							C10.67,10.8,9.97,11.22,9.16,11.29z"/>
						<path class="st2" d="M7.77,8.43C7.84,9.24,7.55,10,7.03,10.55C6.43,10.1,6.01,9.4,5.94,8.59C5.87,7.77,6.16,7.01,6.68,6.46
							C7.28,6.92,7.7,7.61,7.77,8.43z"/>
					</g>
					<g>
						<path class="st2" d="M7.37,14.05c-0.79,0.21-1.59,0.06-2.22-0.36c0.34-0.67,0.96-1.21,1.74-1.42
							c0.79-0.21,1.59-0.06,2.22,0.36C8.77,13.31,8.15,13.84,7.37,14.05z"/>
						<path class="st2" d="M5.5,11.47c0.21,0.79,0.06,1.59-0.36,2.22c-0.68-0.34-1.21-0.96-1.42-1.74
							c-0.21-0.79-0.06-1.59,0.36-2.22C4.75,10.07,5.29,10.68,5.5,11.47z"/>
					</g>
					<g>
						<path class="st2" d="M6.07,17.09c-0.74,0.34-1.55,0.33-2.25,0.03c0.22-0.72,0.73-1.35,1.47-1.7c0.74-0.34,1.55-0.33,2.25-0.03
							C7.32,16.11,6.81,16.74,6.07,17.09z"/>
						<path class="st2" d="M3.78,14.87c0.34,0.74,0.33,1.55,0.03,2.25c-0.72-0.22-1.36-0.73-1.7-1.47
							c-0.34-0.74-0.33-1.55-0.03-2.25C2.81,13.62,3.44,14.13,3.78,14.87z"/>
					</g>
					<g>
						<path class="st2" d="M5.32,20.3c-0.67,0.47-1.47,0.6-2.21,0.42c0.09-0.75,0.48-1.46,1.15-1.93c0.67-0.47,1.47-0.6,2.21-0.42
							C6.39,19.12,5.99,19.83,5.32,20.3z"/>
						<path class="st2" d="M2.68,18.51c0.47,0.67,0.6,1.47,0.42,2.21c-0.75-0.09-1.46-0.48-1.93-1.15c-0.47-0.67-0.6-1.47-0.42-2.21
							C1.51,17.45,2.22,17.85,2.68,18.51z"/>
					</g>
					<g>
						<path class="st2" d="M5.14,23.6c-0.58,0.58-1.34,0.84-2.1,0.8c-0.04-0.75,0.22-1.52,0.8-2.1c0.58-0.58,1.34-0.84,2.1-0.8
							C5.98,22.25,5.71,23.02,5.14,23.6z"/>
						<path class="st2" d="M2.23,22.3c0.58,0.58,0.84,1.34,0.8,2.1c-0.75,0.04-1.52-0.22-2.1-0.8c-0.58-0.58-0.84-1.35-0.8-2.1
							C0.88,21.45,1.65,21.72,2.23,22.3z"/>
					</g>
					<g>
						<path class="st2" d="M5.52,26.85C5.06,27.52,4.35,27.91,3.6,28c-0.17-0.74-0.04-1.54,0.42-2.21c0.47-0.67,1.18-1.06,1.93-1.15
							C6.12,25.38,5.99,26.18,5.52,26.85z"/>
						<path class="st2" d="M2.44,26.08C3.1,26.54,3.5,27.25,3.59,28c-0.74,0.17-1.54,0.04-2.21-0.42c-0.67-0.47-1.06-1.18-1.15-1.93
							C0.97,25.48,1.77,25.61,2.44,26.08z"/>
					</g>
					<g>
						<path class="st2" d="M6.48,29.99c-0.34,0.74-0.98,1.25-1.7,1.47c-0.3-0.69-0.31-1.51,0.03-2.25c0.34-0.74,0.98-1.25,1.7-1.47
							C6.81,28.44,6.82,29.25,6.48,29.99z"/>
						<path class="st2" d="M3.3,29.76c0.74,0.34,1.25,0.98,1.47,1.7c-0.69,0.3-1.51,0.31-2.25-0.03c-0.74-0.34-1.25-0.98-1.47-1.7
							C1.75,29.43,2.56,29.42,3.3,29.76z"/>
					</g>
					<g>
						<path class="st2" d="M7.96,32.91c-0.21,0.79-0.74,1.4-1.42,1.74c-0.41-0.63-0.57-1.43-0.36-2.22c0.21-0.79,0.74-1.4,1.42-1.74
							C8.02,31.33,8.17,32.13,7.96,32.91z"/>
						<path class="st2" d="M4.8,33.24c0.79,0.21,1.4,0.74,1.74,1.42c-0.63,0.41-1.43,0.57-2.22,0.36c-0.79-0.21-1.4-0.74-1.74-1.42
							C3.21,33.18,4.01,33.03,4.8,33.24z"/>
					</g>
					<g>
						<path class="st2" d="M9.94,35.54c-0.07,0.81-0.49,1.51-1.09,1.96c-0.52-0.55-0.81-1.31-0.74-2.12
							c0.07-0.81,0.49-1.51,1.09-1.96C9.72,33.97,10.01,34.73,9.94,35.54z"/>
						<path class="st2" d="M6.88,36.41c0.81,0.07,1.51,0.49,1.96,1.09c-0.55,0.52-1.31,0.81-2.12,0.74
							c-0.81-0.07-1.51-0.49-1.96-1.09C5.3,36.63,6.06,36.34,6.88,36.41z"/>
					</g>
					<g>
						<path class="st2" d="M12.34,37.78c0.07,0.81-0.22,1.57-0.74,2.12c-0.61-0.45-1.02-1.15-1.09-1.96
							c-0.07-0.81,0.22-1.57,0.74-2.12C11.86,36.27,12.27,36.97,12.34,37.78z"/>
						<path class="st2" d="M9.48,39.18c0.81-0.07,1.57,0.22,2.12,0.74c-0.45,0.61-1.15,1.02-1.96,1.1
							c-0.81,0.07-1.57-0.22-2.12-0.74C7.97,39.66,8.67,39.25,9.48,39.18z"/>
					</g>
					<g>
						<path class="st2" d="M15.1,39.58c0.21,0.79,0.06,1.59-0.36,2.22c-0.67-0.34-1.21-0.96-1.42-1.74
							c-0.21-0.79-0.06-1.59,0.36-2.22C14.36,38.18,14.89,38.79,15.1,39.58z"/>
						<path class="st2" d="M12.53,41.45c0.79-0.21,1.59-0.06,2.22,0.36c-0.34,0.68-0.95,1.21-1.74,1.42
							c-0.79,0.21-1.59,0.06-2.22-0.36C11.12,42.19,11.74,41.66,12.53,41.45z"/>
					</g>
					<g>
						<path class="st2" d="M18.14,40.87c0.34,0.74,0.33,1.55,0.03,2.25c-0.72-0.22-1.35-0.73-1.7-1.47
							c-0.34-0.74-0.33-1.55-0.03-2.25C17.16,39.62,17.79,40.14,18.14,40.87z"/>
						<path class="st2" d="M15.92,43.16c0.74-0.34,1.55-0.33,2.25-0.03c-0.22,0.72-0.73,1.35-1.47,1.7
							c-0.74,0.34-1.55,0.33-2.25,0.03C14.67,44.14,15.19,43.51,15.92,43.16z"/>
					</g>
				</g>
				<path class="st2" d="M20.82,2.72c-0.77,0.28-1.57,0.2-2.24-0.16c0.28-0.7,0.84-1.29,1.61-1.56c0.77-0.28,1.57-0.2,2.24,0.16
					C22.16,1.86,21.59,2.44,20.82,2.72z"/>
			</g>
			<path class="st2" d="M27.91,49.37c-3.75-3.71-7.23-5.17-9.8-6.04c-0.25-0.08-0.48-0.16-0.69-0.23
				C8.67,40.03,2.79,31.93,2.79,22.93c0-10.12,7.44-18.95,17.69-21l0.06,0.33C10.45,4.27,3.12,12.97,3.12,22.93
				c0,8.85,5.79,16.83,14.41,19.85c0.21,0.07,0.44,0.15,0.68,0.23c2.6,0.88,7.23,2.36,11.03,6.12L27.91,49.37z"/>
		</g>
		<g>
			<g>
				<g>
					<g>
						<path class="st2" d="M32.75,5.42c0.74-0.34,1.25-0.98,1.47-1.7c-0.69-0.3-1.51-0.31-2.25,0.03c-0.74,0.34-1.25,0.98-1.47,1.7
							C31.19,5.75,32.01,5.77,32.75,5.42z"/>
						<path class="st2" d="M32.52,2.25c0.34,0.74,0.98,1.25,1.7,1.47c0.3-0.69,0.31-1.51-0.03-2.25c-0.34-0.74-0.98-1.25-1.7-1.47
							C32.19,0.69,32.17,1.51,32.52,2.25z"/>
					</g>
					<g>
						<path class="st2" d="M35.67,6.91c0.79-0.21,1.4-0.74,1.74-1.42c-0.63-0.41-1.43-0.57-2.22-0.36c-0.79,0.21-1.4,0.74-1.74,1.42
							C34.09,6.97,34.89,7.12,35.67,6.91z"/>
						<path class="st2" d="M36,3.74c0.21,0.79,0.74,1.4,1.42,1.74c0.41-0.63,0.57-1.43,0.36-2.22c-0.21-0.79-0.74-1.4-1.42-1.74
							C35.94,2.16,35.79,2.95,36,3.74z"/>
					</g>
					<g>
						<path class="st2" d="M38.3,8.88c0.81-0.07,1.51-0.49,1.96-1.09c-0.55-0.52-1.31-0.81-2.12-0.74
							c-0.81,0.07-1.51,0.49-1.96,1.09C36.73,8.67,37.49,8.96,38.3,8.88z"/>
						<path class="st2" d="M39.17,5.82c0.07,0.81,0.49,1.51,1.09,1.96c0.52-0.55,0.81-1.31,0.74-2.12c-0.07-0.81-0.49-1.51-1.1-1.96
							C39.39,4.25,39.1,5.01,39.17,5.82z"/>
					</g>
					<g>
						<path class="st2" d="M40.54,11.29c0.81,0.07,1.57-0.22,2.12-0.74c-0.45-0.61-1.15-1.02-1.96-1.09
							c-0.81-0.07-1.57,0.22-2.12,0.74C39.03,10.8,39.73,11.22,40.54,11.29z"/>
						<path class="st2" d="M41.93,8.43c-0.07,0.81,0.22,1.57,0.74,2.12c0.61-0.45,1.02-1.15,1.1-1.96c0.07-0.81-0.22-1.57-0.74-2.12
							C42.42,6.92,42.01,7.61,41.93,8.43z"/>
					</g>
					<g>
						<path class="st2" d="M42.34,14.05c0.79,0.21,1.59,0.06,2.22-0.36c-0.34-0.67-0.95-1.21-1.74-1.42
							c-0.79-0.21-1.58-0.06-2.22,0.36C40.94,13.31,41.55,13.84,42.34,14.05z"/>
						<path class="st2" d="M44.21,11.47c-0.21,0.79-0.06,1.59,0.36,2.22c0.67-0.34,1.21-0.96,1.42-1.74
							c0.21-0.79,0.06-1.59-0.36-2.22C44.95,10.07,44.42,10.68,44.21,11.47z"/>
					</g>
					<g>
						<path class="st2" d="M43.63,17.09c0.74,0.34,1.55,0.33,2.25,0.03c-0.22-0.72-0.73-1.35-1.47-1.7
							c-0.74-0.34-1.55-0.33-2.25-0.03C42.38,16.11,42.89,16.74,43.63,17.09z"/>
						<path class="st2" d="M45.92,14.87c-0.34,0.74-0.33,1.55-0.03,2.25c0.72-0.22,1.35-0.73,1.7-1.47
							c0.34-0.74,0.33-1.55,0.03-2.25C46.89,13.62,46.26,14.13,45.92,14.87z"/>
					</g>
					<g>
						<path class="st2" d="M44.38,20.3c0.67,0.47,1.47,0.6,2.21,0.42c-0.09-0.75-0.48-1.46-1.15-1.93c-0.67-0.47-1.47-0.6-2.21-0.42
							C43.32,19.12,43.72,19.83,44.38,20.3z"/>
						<path class="st2" d="M47.02,18.51c-0.47,0.67-0.6,1.47-0.42,2.21c0.75-0.09,1.46-0.48,1.93-1.15c0.47-0.67,0.6-1.47,0.42-2.21
							C48.2,17.45,47.49,17.85,47.02,18.51z"/>
					</g>
					<g>
						<path class="st2" d="M44.57,23.6c0.57,0.58,1.34,0.84,2.1,0.8c0.04-0.75-0.22-1.52-0.8-2.1c-0.58-0.58-1.35-0.84-2.1-0.8
							C43.72,22.25,43.99,23.02,44.57,23.6z"/>
						<path class="st2" d="M47.47,22.3c-0.57,0.58-0.84,1.34-0.8,2.1c0.75,0.04,1.52-0.22,2.1-0.8c0.58-0.58,0.84-1.35,0.8-2.1
							C48.82,21.45,48.05,21.72,47.47,22.3z"/>
					</g>
					<g>
						<path class="st2" d="M44.18,26.85c0.47,0.67,1.18,1.06,1.93,1.15c0.17-0.74,0.05-1.54-0.42-2.21
							c-0.47-0.67-1.18-1.06-1.93-1.15C43.58,25.38,43.71,26.18,44.18,26.85z"/>
						<path class="st2" d="M47.27,26.08c-0.67,0.47-1.06,1.18-1.15,1.93c0.74,0.17,1.54,0.04,2.21-0.42
							c0.67-0.47,1.06-1.18,1.15-1.93C48.74,25.48,47.94,25.61,47.27,26.08z"/>
					</g>
					<g>
						<path class="st2" d="M43.23,29.99c0.34,0.74,0.98,1.25,1.7,1.47c0.3-0.69,0.31-1.51-0.03-2.25c-0.34-0.74-0.98-1.25-1.7-1.47
							C42.9,28.44,42.88,29.25,43.23,29.99z"/>
						<path class="st2" d="M46.4,29.76c-0.74,0.34-1.25,0.98-1.47,1.7c0.69,0.3,1.51,0.31,2.25-0.03c0.74-0.34,1.25-0.98,1.47-1.7
							C47.96,29.43,47.14,29.42,46.4,29.76z"/>
					</g>
					<g>
						<path class="st2" d="M41.74,32.91c0.21,0.79,0.74,1.4,1.42,1.74c0.41-0.63,0.57-1.43,0.36-2.22c-0.21-0.79-0.75-1.4-1.42-1.74
							C41.68,31.33,41.53,32.13,41.74,32.91z"/>
						<path class="st2" d="M44.91,33.24c-0.79,0.21-1.4,0.74-1.74,1.42c0.63,0.41,1.43,0.57,2.22,0.36c0.79-0.21,1.4-0.74,1.74-1.42
							C46.5,33.18,45.7,33.03,44.91,33.24z"/>
					</g>
					<g>
						<path class="st2" d="M39.77,35.54c0.07,0.81,0.49,1.51,1.1,1.96c0.52-0.55,0.81-1.31,0.74-2.12c-0.07-0.81-0.49-1.51-1.1-1.96
							C39.99,33.97,39.7,34.73,39.77,35.54z"/>
						<path class="st2" d="M42.83,36.41c-0.81,0.07-1.51,0.49-1.96,1.09c0.55,0.52,1.31,0.81,2.12,0.74
							c0.81-0.07,1.51-0.49,1.96-1.09C44.4,36.63,43.64,36.34,42.83,36.41z"/>
					</g>
					<g>
						<path class="st2" d="M37.36,37.78c-0.07,0.81,0.22,1.57,0.74,2.12c0.6-0.45,1.02-1.15,1.09-1.96
							c0.07-0.81-0.22-1.57-0.74-2.12C37.85,36.27,37.43,36.97,37.36,37.78z"/>
						<path class="st2" d="M40.23,39.18c-0.81-0.07-1.57,0.22-2.12,0.74c0.45,0.61,1.15,1.02,1.96,1.1
							c0.81,0.07,1.57-0.22,2.12-0.74C41.74,39.66,41.04,39.25,40.23,39.18z"/>
					</g>
					<g>
						<path class="st2" d="M34.6,39.58c-0.21,0.79-0.06,1.59,0.36,2.22c0.67-0.34,1.21-0.96,1.42-1.74
							c0.21-0.79,0.06-1.59-0.36-2.22C35.34,38.18,34.81,38.79,34.6,39.58z"/>
						<path class="st2" d="M37.18,41.45c-0.79-0.21-1.59-0.06-2.22,0.36c0.34,0.68,0.95,1.21,1.74,1.42
							c0.79,0.21,1.59,0.06,2.22-0.36C38.58,42.19,37.97,41.66,37.18,41.45z"/>
					</g>
					<g>
						<path class="st2" d="M31.57,40.87c-0.34,0.74-0.33,1.55-0.03,2.25c0.72-0.22,1.35-0.73,1.7-1.47
							c0.34-0.74,0.33-1.55,0.03-2.25C32.54,39.62,31.91,40.14,31.57,40.87z"/>
						<path class="st2" d="M33.78,43.16c-0.74-0.34-1.55-0.33-2.25-0.03c0.22,0.72,0.73,1.35,1.47,1.7
							c0.74,0.34,1.55,0.33,2.25,0.03C35.03,44.14,34.52,43.51,33.78,43.16z"/>
					</g>
				</g>
				<path class="st2" d="M28.88,2.72c0.77,0.28,1.58,0.2,2.24-0.16c-0.28-0.7-0.85-1.29-1.61-1.56c-0.77-0.28-1.57-0.2-2.24,0.16
					C27.55,1.86,28.12,2.44,28.88,2.72z"/>
			</g>
			<path class="st2" d="M21.79,49.37l-1.34-0.24c3.8-3.76,8.43-5.24,11.03-6.12c0.25-0.08,0.48-0.16,0.68-0.23
				c8.62-3.02,14.41-10.99,14.41-19.85c0-9.96-7.33-18.66-17.42-20.67l0.07-0.33c10.25,2.04,17.69,10.87,17.69,21
				c0,9-5.88,17.1-14.64,20.16c-0.21,0.07-0.44,0.15-0.69,0.23C29.02,44.2,25.54,45.66,21.79,49.37z"/>
		</g>
	</g>
	<g>
		<path class="st2" d="M22.2,23.01h-1.8v3.4h-4.62v-3.4H9.73v-2.01l7.58-10.86h3.1v11.04h1.8V23.01z M11.84,21.17h4.02v-6.22
			L11.84,21.17z"/>
		<path class="st2" d="M31.07,9.88c4.54,0,6.81,2.8,6.81,8.39s-2.27,8.39-6.81,8.39c-4.55,0-6.82-2.8-6.82-8.39
			S26.53,9.88,31.07,9.88z M31.07,11.18c-1.24,0-1.86,2.36-1.86,7.09s0.62,7.09,1.86,7.09c1.23,0,1.85-2.36,1.85-7.09
			S32.3,11.18,31.07,11.18z"/>
	</g>
	<g>
		<path class="st2" d="M17.64,29.91l1.85,6.66h-1.94l-0.4-1.44h-2l-0.42,1.44h-0.76l1.97-6.66H17.64z M15.34,34.45h1.63l-0.78-2.95
			L15.34,34.45z"/>
		<path class="st2" d="M24.58,36.56H22.8v-3.61c0-0.37-0.1-0.55-0.31-0.55c-0.21,0-0.39,0.15-0.54,0.44
			c-0.15,0.29-0.23,0.63-0.23,1.03v2.69h-1.78v-4.93c0.61,0,1.2-0.04,1.78-0.12v0.92c0.44-0.61,0.98-0.92,1.62-0.92
			c0.83,0,1.24,0.42,1.24,1.26V36.56z M20.91,31.05h-0.28c0.22-0.84,0.55-1.26,0.98-1.26c0.16,0,0.45,0.07,0.86,0.2
			c0.36,0.11,0.59,0.17,0.71,0.17c0.24,0,0.39-0.15,0.46-0.44h0.27c-0.2,0.84-0.53,1.26-0.99,1.26c-0.16,0-0.45-0.06-0.85-0.19
			c-0.37-0.11-0.61-0.17-0.72-0.17C21.12,30.61,20.98,30.76,20.91,31.05z"/>
		<path class="st2" d="M27.79,31.52c1.63,0,2.44,0.86,2.44,2.57c0,1.72-0.81,2.57-2.44,2.57c-1.63,0-2.44-0.86-2.44-2.57
			C25.35,32.38,26.16,31.52,27.79,31.52z M27.79,31.95c-0.39,0-0.59,0.71-0.59,2.14c0,1.43,0.2,2.14,0.59,2.14
			c0.4,0,0.59-0.71,0.59-2.14C28.38,32.67,28.18,31.95,27.79,31.95z"/>
		<path class="st2" d="M34.82,32.91l-0.86,0.15c0-0.73-0.34-1.1-1.02-1.1c-0.42,0-0.63,0.17-0.63,0.52c0,0.25,0.36,0.53,1.08,0.82
			c1.11,0.45,1.66,1.03,1.66,1.72c0,1.11-0.7,1.66-2.11,1.66c-1.49,0-2.23-0.55-2.23-1.66l0.92-0.19c-0.01,0.11-0.02,0.21-0.02,0.3
			c0,0.29,0.12,0.53,0.36,0.75c0.24,0.21,0.52,0.32,0.85,0.32c0.43,0,0.64-0.18,0.64-0.55c0-0.24-0.35-0.51-1.04-0.81
			c-1.04-0.45-1.57-1.02-1.57-1.73c0-0.47,0.2-0.85,0.6-1.14c0.4-0.3,0.91-0.45,1.54-0.45C34.1,31.52,34.71,31.99,34.82,32.91z"/>
	</g>
</g>
</svg>
